<?xml version="1.0" encoding="utf-8"?>
<!-- Generator: Adobe Illustrator 24.1.0, SVG Export Plug-In . SVG Version: 6.00 Build 0)  -->
<svg version="1.1"
	 id="svg3355" xmlns:cc="http://creativecommons.org/ns#" xmlns:dc="http://purl.org/dc/elements/1.1/" xmlns:rdf="http://www.w3.org/1999/02/22-rdf-syntax-ns#" xmlns:svg="http://www.w3.org/2000/svg"
	 xmlns="http://www.w3.org/2000/svg" xmlns:xlink="http://www.w3.org/1999/xlink" x="0px" y="0px" viewBox="0 0 111.8 127.4"
	 style="enable-background:new 0 0 111.8 127.4;" xml:space="preserve">
<style type="text/css">
	.st0{fill-rule:evenodd;clip-rule:evenodd;fill:#6441A5;}
</style>
<g id="g3365" transform="translate(420.064,651.1567)">
	<path id="path3367" class="st0" d="M-318.7-583.6l-18.2,18.2h-28.6l-15.6,15.6v-15.6h-23.4v-75.4h85.8V-583.6z M-414.9-651.2
		l-5.2,20.8v93.6h23.4v13h13l13-13h20.8l41.6-41.6v-72.8H-414.9L-414.9-651.2z"/>
</g>
<path id="path3369" class="st0" d="M44.2,62.4h10.4V31.2H44.2V62.4z M72.8,62.4h10.4V31.2H72.8V62.4z"/>
</svg>
